<?xml version="1.0" encoding="UTF-8"?>
<svg width="166px" height="27px" viewBox="0 0 166 27" version="1.1" xmlns="http://www.w3.org/2000/svg" xmlns:xlink="http://www.w3.org/1999/xlink" xmlns:sketch="http://www.bohemiancoding.com/sketch/ns">
    <!-- Generator: Sketch 3.3.3 (12072) - http://www.bohemiancoding.com/sketch -->
    <title>Group</title>
    <desc>Created with Sketch.</desc>
    <defs></defs>
    <g id="Page-1" stroke="none" stroke-width="1" fill="none" fill-rule="evenodd" sketch:type="MSPage">
        <g id="renesas" sketch:type="MSLayerGroup" transform="translate(-20.000000, -82.000000)" fill="#334398">
            <g id="Group" transform="translate(20.000000, 82.000000)" sketch:type="MSShapeGroup">
                <path d="M40.1,7.8 L48.3,7.8 C48.6,7.8 49,7.6 49.2,7.3 L50.2,5.4 L38.4,5.4 C33.1,5.4 30.7,7.3 30.7,11.2 L30.7,15.6 C30.7,19.7 33.3,21.6 38.4,21.6 L48.7,21.6 C49,21.6 49.4,21.4 49.6,21.1 L50.6,19.2 L40.1,19.2 C37.4,19.2 36.3,18.3 36.3,16.5 L36.3,14.3 L47.1,14.3 C47.4,14.3 47.8,14.1 48,13.8 L49,11.9 L36.3,11.9 L36.3,10.5 C36.5,9.2 36.8,7.8 40.1,7.8" id="Shape"></path>
                <rect id="Rectangle-path" x="0.4" y="13.5" width="7.5" height="7.5"></rect>
                <path d="M25.5,4.8 C26.4,8.2 23.4,10.3 20.4,11.6 C19.5,11.9 19.2,12.3 19.2,12.8 C19.2,13.3 19.4,13.8 19.9,14.7 C22.5,18.5 27.8,23.3 33.2,26.2 C33.4,26.2 33.2,26.4 33.2,26.4 C33,26.4 32.9,26.6 32.5,26.4 C24.3,24.3 15.7,18.2 13,13.9 C12.5,13.2 12.5,12.7 12.5,12.4 C12.5,12.1 12.8,11.7 13.5,11.4 C15.6,10.4 19.1,8.3 18.3,5.8 C17.1,2 9.9,2.2 4.3,3.9 C3.1,4.2 1.7,4.9 0.7,5.6 C0.5,5.6 0.4,5.8 0.4,5.4 L0.6,4.5 C0.6,4.2 1.1,3.8 1.5,3.6 C10.3,-0.9 24.3,-0.2 25.5,4.8" id="Shape"></path>
                <path d="M56.9,5.4 C60.3,5.4 61.2,5.9 62.4,7.5 L70.8,17.4 C71,17.6 71,17.6 71.1,17.6 L71.1,5.4 L74.4,5.4 L74.4,21.7 L71,21.7 C68.8,21.7 67.7,21.5 66.4,19.8 L57.7,9.5 C57.5,9.3 57.5,9.3 57.4,9.3 L57.4,21.5 L54.1,21.5 L54.1,5.3 L56.9,5.4 L56.9,5.4 Z" id="Shape"></path>
                <path d="M87.5,7.8 L95.7,7.8 C96,7.8 96.4,7.6 96.6,7.3 L97.6,5.4 L85.8,5.4 C80.5,5.4 78.1,7.3 78.1,11.2 L78.1,15.6 C78.1,19.7 80.7,21.6 85.8,21.6 L96,21.6 C96.3,21.6 96.7,21.4 96.9,21.1 L97.9,19.2 L87.5,19.2 C84.8,19.2 83.7,18.3 83.7,16.5 L83.7,14.3 L94.5,14.3 C94.8,14.3 95.2,14.1 95.4,13.8 L96.4,11.9 L83.7,11.9 L83.7,10.5 C83.9,9.2 84.2,7.8 87.5,7.8" id="Shape"></path>
                <path d="M111.1,16.2 C113.3,16.9 114,17.2 114,18.1 C114,18.8 113.5,19.5 110.7,19.5 L101.1,19.5 C100.8,19.5 100.4,19.7 100.2,20 L99.2,21.9 L112.7,21.9 C118.2,21.9 120.2,20.2 120.2,17.8 C120.2,16.4 119.3,14.5 114.4,13 L109.1,11.3 C106.9,10.6 106.2,10.3 106.2,9.4 C106.2,8.7 106.5,8 109.5,8 L117.5,8 C117.8,8 118.2,7.8 118.4,7.5 L119.4,5.6 L107.4,5.6 C101.9,5.6 99.9,7.3 99.9,9.7 C99.9,11.1 100.8,13 105.7,14.5 L111.1,16.2 L111.1,16.2 Z" id="Shape"></path>
                <path d="M159.7,12.6 L154.4,10.9 C152.2,10.2 151.5,9.9 151.5,9 C151.5,8.3 152,7.6 154.8,7.6 L162.8,7.6 C163.1,7.6 163.5,7.4 163.7,7.1 L164.7,5.2 L152.7,5.2 C147.2,5.2 145.2,6.9 145.2,9.3 C145.2,10.7 146.1,12.6 151,14.1 L156.3,15.8 C158.5,16.5 159.2,16.8 159.2,17.7 C159.2,18.4 158.7,19.1 155.9,19.1 L144.9,19.1 L136.3,5.2 L133.2,5.2 C130.6,5.2 129.4,5.9 128.2,7.8 L120,21.3 L125.6,21.3 L132.4,9.1 C132.6,8.8 132.7,8.8 132.9,8.8 L138.5,18.9 L132.3,18.9 C132,18.9 131.6,19.1 131.4,19.4 L130.4,21.3 L146.1,21.3 L157.7,21.3 C163.2,21.3 165.2,19.6 165.2,17.2 C165.7,16.2 164.8,14.3 159.7,12.6" id="Shape"></path>
            </g>
        </g>
    </g>
</svg>